C:\Users\pavan.nemalikanti\IdeaProjects\CucumberFramework\src\test\java\stepDefinitions\DemoGuru99_Steps.java
C:\Users\pavan.nemalikanti\IdeaProjects\CucumberFramework\src\test\java\stepDefinitions\Steps.java
C:\Users\pavan.nemalikanti\IdeaProjects\CucumberFramework\src\test\java\runners\TestRunner.java
C:\Users\pavan.nemalikanti\IdeaProjects\CucumberFramework\src\test\java\stepDefinitions\Hooks.java
